[gd_scene load_steps=4 format=2]

[sub_resource type="CubeMesh" id=1]
size = Vector3( 0.75, 3, 0.75 )

[sub_resource type="SpatialMaterial" id=2]
albedo_color = Color( 1, 0, 0, 1 )

[sub_resource type="CubeMesh" id=3]
size = Vector3( 0.5, 1, 0.5 )

[node name="WallTower" type="Spatial"]

[node name="MeshInstance" type="MeshInstance" parent="."]
transform = Transform( 1, 0, 0, 0, 1, 0, 0, 0, 1, 0, 1.5, 0 )
mesh = SubResource( 1 )
material/0 = SubResource( 2 )

[node name="MeshInstance2" type="MeshInstance" parent="."]
transform = Transform( 1, 0, 0, 0, 1, 0, 0, 0, 1, 0, 2.9713, 0 )
mesh = SubResource( 3 )
material/0 = SubResource( 2 )
