[gd_scene load_steps=7 format=2]

[ext_resource path="res://src/global/Data.cs" type="Script" id=1]
[ext_resource path="res://graphics/images/mud.png" type="Texture" id=2]
[ext_resource path="res://graphics/images/sand.png" type="Texture" id=3]
[ext_resource path="res://graphics/images/snow.png" type="Texture" id=4]
[ext_resource path="res://graphics/images/stone.png" type="Texture" id=5]
[ext_resource path="res://graphics/images/grass.png" type="Texture" id=6]

[node name="Data" type="Node"]
script = ExtResource( 1 )
textures = [ ExtResource( 2 ), ExtResource( 3 ), ExtResource( 6 ), ExtResource( 5 ), ExtResource( 4 ) ]
