[gd_scene load_steps=3 format=2]

[sub_resource type="SpatialMaterial" id=1]
albedo_color = Color( 1, 0.87451, 0.305882, 1 )

[sub_resource type="PlaneMesh" id=2]
material = SubResource( 1 )
size = Vector2( 0.5, 0.5 )

[node name="FarmLow2" type="Spatial"]

[node name="MeshInstance" type="MeshInstance" parent="."]
transform = Transform( 1, 0, 0, 0, 1, 0, 0, 0, 1, 0, 0.0148104, 0 )
mesh = SubResource( 2 )
material/0 = null
