[gd_scene load_steps=3 format=2]

[sub_resource type="SpatialMaterial" id=1]
albedo_color = Color( 0.121569, 0.709804, 0.0392157, 1 )

[sub_resource type="CubeMesh" id=2]
material = SubResource( 1 )
size = Vector3( 0.25, 1, 0.25 )

[node name="PlantLow1" type="Spatial"]

[node name="MeshInstance" type="MeshInstance" parent="."]
transform = Transform( 1, 0, 0, 0, 1, 0, 0, 0, 1, 0, 0.5, 0 )
mesh = SubResource( 2 )
material/0 = null
