[gd_resource type="Resource" load_steps=4 format=2]

[ext_resource path="res://src/map/HexFeatureCollection.cs" type="Script" id=1]
[ext_resource path="res://src/map/features/urban/UrbanLow1.tscn" type="PackedScene" id=2]
[ext_resource path="res://src/map/features/urban/UrbanLow2.tscn" type="PackedScene" id=3]

[resource]
script = ExtResource( 1 )
scenes = [ ExtResource( 2 ), ExtResource( 3 ) ]
